{
  "tracks": [
    {
      "name": "In The End",
      "duration": 3.34,
      "albumId": 1,
      "artistId": [1,2],
      "genreId": 1,
      "id": 1
    },
    {
      "name": "Venom",
      "duration": 4.30,
      "albumId": 2,
      "artistId": [2],
      "genreId": 2,
      "id": 2
    },
    {
      "name": "Crawling",
      "duration": 2.71,
      "albumId": 1,
      "artistId": [1],
      "genreId": 1,
      "id": 3
    }
  ],
  "artists": [
    {
      "name": "Linkin Park",
      "trackId": [1,3],
      "id": 1
    },
    {
      "name": "Eminem",
      "trackId": [1,2],
      "id": 2
    }
  ],
  "albums": [
    {
      "name": "Hybrid Theory",
      "year": 2000,
      "trackId": [1,3],
      "id": 1
    },
    {
      "name": "Kamikaze",
      "year": 2018,
      "trackId": [2],
      "id": 2
    }
  ],
  "genres": [
    {
      "name": "Rock",
      "trackId": [1,3],
      "id": 1
    },
    {
      "name": "Hip Hop",
      "trackId": [2],
      "id": 2
    }
  ]
}